…
# summarize within cities to obtain the total number of homicides and the number of unsolved homicides 
homicides_number = 
  homicides_data |>
  group_by(city_state) |>
  summarise(
    total_homicides = n(),
    unsolved_homicides = sum(disposition %in% c("Closed without arrest","Open/No arrest"))
    )

print(homicides_number)
```

    ## # A tibble: 51 × 3
    ##    city_state       total_homicides unsolved_homicides
    ##    <chr>                      <int>              <int>
    ##  1 Albuquerque , NM             378                146
    ##  2 Atlanta , GA                 973                373
    ##  3 Baltimore , MD              2827               1825
    ##  4 Baton Rouge , LA             424                196
    ##  5 Birmingham , AL              800                347
    ##  6 Boston , MA                  614                310
    ##  7 Buffalo , NY                 521                319
    ##  8 Charlotte , NC               687                206
    ##  9 Chicago , IL                5535               4073
    ## 10 Cincinnati , OH              694                309
    ## # ℹ 41 more rows
…
  city_result
}

city_name = pull(homicides_number, city_state)

total_result = 
  data_frame(city_name) |>
  mutate(test_result = map(city_name, unsolved_propotion)) |>
  unnest(test_result)
  
total_result
```

    ## # A tibble: 51 × 4
    ##    city_name        estimate conf.low conf.high
    ##    <chr>               <dbl>    <dbl>     <dbl>
    ##  1 Albuquerque , NM    0.386    0.337     0.438
    ##  2 Atlanta , GA        0.383    0.353     0.415
    ##  3 Baltimore , MD      0.646    0.628     0.663
    ##  4 Baton Rouge , LA    0.462    0.414     0.511
    ##  5 Birmingham , AL     0.434    0.399     0.469
    ##  6 Boston , MA         0.505    0.465     0.545
    ##  7 Buffalo , NY        0.612    0.569     0.654
    ##  8 Charlotte , NC      0.300    0.266     0.336
    ##  9 Chicago , IL        0.736    0.724     0.747
    ## 10 Cincinnati , OH     0.445    0.408     0.483
    ## # ℹ 41 more rows
…
longitudinal_df
```

    ## # A tibble: 160 × 4
    ##    arm     subject_id week  observation
    ##    <chr>   <chr>      <chr>       <dbl>
    ##  1 control 01         1            0.2 
    ##  2 control 01         2           -1.31
    ##  3 control 01         3            0.66
    ##  4 control 01         4            1.96
    ##  5 control 01         5            0.23
    ##  6 control 01         6            1.09
    ##  7 control 01         7            0.05
    ##  8 control 01         8            1.94
    ##  9 control 02         1            1.13
    ## 10 control 02         2           -0.88
    ## # ℹ 150 more rows
…
  return(sim_result)
}

mu_0_result = 
  expand_grid(
    mu = 0,
    iter = 1:5000
  ) |>
  mutate(result = map(mu, sim_test)) |>
  unnest(result)

mu_0_result
```

    ## # A tibble: 5,000 × 4
    ##       mu  iter estimate p.value
    ##    <dbl> <int>    <dbl>   <dbl>
    ##  1     0     1    0.875   0.405
    ##  2     0     2    0.668   0.496
    ##  3     0     3   -0.316   0.694
    ##  4     0     4    1.39    0.197
    ##  5     0     5   -0.331   0.713
    ##  6     0     6   -1.71    0.144
    ##  7     0     7    1.15    0.270
    ##  8     0     8    0.205   0.788
    ##  9     0     9   -0.293   0.806
    ## 10     0    10   -0.484   0.611
    ## # ℹ 4,990 more rows
…
